…
``` r
boot_straps =
  tibble(
    strap_number = 1:1000,
    strap_sample = rerun(1000, boot_sample(sim_df_nonconst))
  )

#so what you have is a tibble with strap_number from 1 to 1000 and strap_sample which are the result of boot_sample bootstrap samples each consisting of a tibble for 250 rows
#check to see what is inside each tibble

boot_straps %>% pull(strap_sample)
```

    ## [[1]]
    ## # A tibble: 250 x 3
    ##         x  error       y
    ##     <dbl>  <dbl>   <dbl>
    ##  1 -1.29   1.40  -0.454 
    ##  2 -0.989 -1.97  -2.93  
    ##  3 -0.914 -0.908 -1.65  
    ##  4 -0.914 -0.908 -1.65  
    ##  5 -0.805  0.292 -0.123 
    ##  6 -0.805  0.292 -0.123 
    ##  7 -0.665 -0.544 -0.539 
    ##  8 -0.641 -0.416 -0.338 
    ##  9 -0.606 -0.106  0.0774
    ## 10 -0.606 -0.106  0.0774
    ## # … with 240 more rows
    ## 
    ## [[2]]
    ## # A tibble: 250 x 3
    ##         x  error      y
    ##     <dbl>  <dbl>  <dbl>
    ##  1 -1.89   1.62  -2.04 
    ##  2 -1.89   1.62  -2.04 
    ##  3 -1.29   1.40  -0.454
    ##  4 -1.29   1.40  -0.454
    ##  5 -1.00   0.832 -0.169
    ##  6 -0.914 -0.908 -1.65 
    ##  7 -0.805  0.292 -0.123
    ##  8 -0.665 -0.544 -0.539
    ##  9 -0.665 -0.544 -0.539
    ## 10 -0.665 -0.544 -0.539
    ## # … with 240 more rows
    ## 
    ## [[3]]
    ## # A tibble: 250 x 3
    ##         x  error      y
    ##     <dbl>  <dbl>  <dbl>
    ##  1 -1.89   1.62  -2.04 
    ##  2 -1.89   1.62  -2.04 
    ##  3 -1.29   1.40  -0.454
    ##  4 -1.29   1.40  -0.454
    ##  5 -1.29   1.40  -0.454
    ##  6 -1.21  -0.781 -2.43 
    ##  7 -1.00   0.832 -0.169
    ##  8 -1.00   0.832 -0.169
    ##  9 -0.989 -1.97  -2.93 
    ## 10 -0.914 -0.908 -1.65 
    ## # … with 240 more rows
    ## 
    ## [[4]]
    ## # A tibble: 250 x 3
    ##         x  error      y
    ##     <dbl>  <dbl>  <dbl>
    ##  1 -1.89   1.62  -2.04 
    ##  2 -1.89   1.62  -2.04 
    ##  3 -1.29   1.40  -0.454
    ##  4 -1.21  -0.781 -2.43 
    ##  5 -1.21  -0.781 -2.43 
    ##  6 -1.21  -0.781 -2.43 
    ##  7 -1.00   0.832 -0.169
    ##  8 -0.989 -1.97  -2.93 
    ##  9 -0.989 -1.97  -2.93 
    ## 10 -0.733  0.447  0.248
    ## # … with 240 more rows
    ## 
    ## [[5]]
    ## # A tibble: 250 x 3
    ##         x  error      y
    ##     <dbl>  <dbl>  <dbl>
    ##  1 -1.89   1.62  -2.04 
    ##  2 -1.29   1.40  -0.454
    ##  3 -1.29   1.40  -0.454
    ##  4 -1.21  -0.781 -2.43 
    ##  5 -0.989 -1.97  -2.93 
    ##  6 -0.989 -1.97  -2.93 
    ##  7 -0.914 -0.908 -1.65 
    ##  8 -0.805  0.292 -0.123
    ##  9 -0.805  0.292 -0.123
    ## 10 -0.805  0.292 -0.123
    ## # … with 240 more rows
    ## 
    ## [[6]]
    ## # A tibble: 250 x 3
    ##         x   error      y
    ##     <dbl>   <dbl>  <dbl>
    ##  1 -1.89   1.62   -2.04 
    ##  2 -1.29   1.40   -0.454
    ##  3 -1.29   1.40   -0.454
    ##  4 -1.29   1.40   -0.454
    ##  5 -0.989 -1.97   -2.93 
    ##  6 -0.914 -0.908  -1.65 
    ##  7 -0.641 -0.416  -0.338
    ##  8 -0.641 -0.416  -0.338
    ##  9 -0.518 -0.0639  0.381
    ## 10 -0.518 -0.0639  0.381
    ## # … with 240 more rows
    ## 
    ## [[7]]
    ## # A tibble: 250 x 3
    ##         x   error      y
    ##     <dbl>   <dbl>  <dbl>
    ##  1 -1.89   1.62   -2.04 
    ##  2 -1.89   1.62   -2.04 
    ##  3 -1.29   1.40   -0.454
    ##  4 -1.21  -0.781  -2.43 
    ##  5 -0.914 -0.908  -1.65 
    ##  6 -0.733  0.447   0.248
    ##  7 -0.733  0.447   0.248
    ##  8 -0.641 -0.416  -0.338
    ##  9 -0.536  0.0227  0.413
    ## 10 -0.524 -0.536  -0.106
    ## # … with 240 more rows
    ## 
    ## [[8]]
    ## # A tibble: 250 x 3
    ##         x   error       y
    ##     <dbl>   <dbl>   <dbl>
    ##  1 -1.00   0.832  -0.169 
    ##  2 -0.989 -1.97   -2.93  
    ##  3 -0.914 -0.908  -1.65  
    ##  4 -0.733  0.447   0.248 
    ##  5 -0.733  0.447   0.248 
    ##  6 -0.733  0.447   0.248 
    ##  7 -0.665 -0.544  -0.539 
    ##  8 -0.606 -0.106   0.0774
    ##  9 -0.606 -0.106   0.0774
    ## 10 -0.536  0.0227  0.413 
    ## # … with 240 more rows
    ## 
    ## [[9]]
    ## # A tibble: 250 x 3
    ##         x  error      y
    ##     <dbl>  <dbl>  <dbl>
    ##  1 -1.89   1.62  -2.04 
    ##  2 -1.89   1.62  -2.04 
    ##  3 -1.89   1.62  -2.04 
    ##  4 -1.21  -0.781 -2.43 
    ##  5 -0.989 -1.97  -2.93 
    ##  6 -0.989 -1.97  -2.93 
    ##  7 -0.914 -0.908 -1.65 
    ##  8 -0.914 -0.908 -1.65 
    ##  9 -0.914 -0.908 -1.65 
    ## 10 -0.805  0.292 -0.123
    ## # … with 240 more rows
    ## 
    ## [[10]]
    ## # A tibble: 250 x 3
    ##         x  error      y
    ##     <dbl>  <dbl>  <dbl>
    ##  1 -1.89   1.62  -2.04 
    ##  2 -1.89   1.62  -2.04 
    ##  3 -1.29   1.40  -0.454
    ##  4 -1.21  -0.781 -2.43 
    ##  5 -1.21  -0.781 -2.43 
    ##  6 -1.21  -0.781 -2.43 
    ##  7 -1.00   0.832 -0.169
    ##  8 -1.00   0.832 -0.169
    ##  9 -1.00   0.832 -0.169
    ## 10 -0.914 -0.908 -1.65 
    ## # … with 240 more rows
    ## 
    ## [[11]]
    ## # A tibble: 250 x 3
    ##         x  error      y
    ##     <dbl>  <dbl>  <dbl>
    ##  1 -1.89   1.62  -2.04 
    ##  2 -1.89   1.62  -2.04 
    ##  3 -1.89   1.62  -2.04 
    ##  4 -1.89   1.62  -2.04 
    ##  5 -1.29   1.40  -0.454
    ##  6 -1.29   1.40  -0.454
    ##  7 -1.21  -0.781 -2.43 
    ##  8 -0.989 -1.97  -2.93 
    ##  9 -0.665 -0.544 -0.539
    ## 10 -0.665 -0.544 -0.539
    ## # … with 240 more rows
    ## 
    ## [[12]]
    ## # A tibble: 250 x 3
    ##         x  error      y
    ##     <dbl>  <dbl>  <dbl>
    ##  1 -1.89   1.62  -2.04 
    ##  2 -1.89   1.62  -2.04 
    ##  3 -1.21  -0.781 -2.43 
    ##  4 -1.21  -0.781 -2.43 
    ##  5 -1.00   0.832 -0.169
    ##  6 -0.989 -1.97  -2.93 
    ##  7 -0.914 -0.908 -1.65 
    ##  8 -0.914 -0.908 -1.65 
    ##  9 -0.805  0.292 -0.123
    ## 10 -0.805  0.292 -0.123
    ## # … with 240 more rows
    ## 
    ## [[13]]
    ## # A tibble: 250 x 3
    ##         x  error      y
    ##     <dbl>  <dbl>  <dbl>
    ##  1 -1.89   1.62  -2.04 
    ##  2 -1.89   1.62  -2.04 
    ##  3 -0.989 -1.97  -2.93 
    ##  4 -0.989 -1.97  -2.93 
    ##  5 -0.805  0.292 -0.123
    ##  6 -0.733  0.447  0.248
    ##  7 -0.733  0.447  0.248
    ##  8 -0.665 -0.544 -0.539
    ##  9 -0.641 -0.416 -0.338
    ## 10 -0.641 -0.416 -0.338
    ## # … with 240 more rows
    ## 
    ## [[14]]
    ## # A tibble: 250 x 3
    ##         x  error      y
    ##     <dbl>  <dbl>  <dbl>
    ##  1 -1.89   1.62  -2.04 
    ##  2 -1.21  -0.781 -2.43 
    ##  3 -0.989 -1.97  -2.93 
    ##  4 -0.989 -1.97  -2.93 
    ##  5 -0.914 -0.908 -1.65 
    ##  6 -0.914 -0.908 -1.65 
    ##  7 -0.805  0.292 -0.123
    ##  8 -0.665 -0.544 -0.539
    ##  9 -0.665 -0.544 -0.539
    ## 10 -0.665 -0.544 -0.539
    ## # … with 240 more rows
    ## 
    ## [[15]]
    ## # A tibble: 250 x 3
    ##         x  error       y
    ##     <dbl>  <dbl>   <dbl>
    ##  1 -1.89   1.62  -2.04  
    ##  2 -1.00   0.832 -0.169 
    ##  3 -0.989 -1.97  -2.93  
    ##  4 -0.989 -1.97  -2.93  
    ##  5 -0.989 -1.97  -2.93  
    ##  6 -0.733  0.447  0.248 
    ##  7 -0.606 -0.106  0.0774
    ##  8 -0.524 -0.536 -0.106 
    ##  9 -0.487  0.152  0.690 
    ## 10 -0.487  0.152  0.690 
    ## # … with 240 more rows
    ## 
    ## [[16]]
    ## # A tibble: 250 x 3
    ##         x  error      y
    ##     <dbl>  <dbl>  <dbl>
    ##  1 -1.89   1.62  -2.04 
    ##  2 -1.29   1.40  -0.454
    ##  3 -1.29   1.40  -0.454
    ##  4 -1.29   1.40  -0.454
    ##  5 -1.21  -0.781 -2.43 
    ##  6 -0.989 -1.97  -2.93 
    ##  7 -0.914 -0.908 -1.65 
    ##  8 -0.733  0.447  0.248
    ##  9 -0.733  0.447  0.248
    ## 10 -0.733  0.447  0.248
    ## # … with 240 more rows
    ## 
    ## [[17]]
    ## # A tibble: 250 x 3
    ##         x   error      y
    ##     <dbl>   <dbl>  <dbl>
    ##  1 -1.29   1.40   -0.454
    ##  2 -1.00   0.832  -0.169
    ##  3 -0.989 -1.97   -2.93 
    ##  4 -0.914 -0.908  -1.65 
    ##  5 -0.641 -0.416  -0.338
    ##  6 -0.641 -0.416  -0.338
    ##  7 -0.641 -0.416  -0.338
    ##  8 -0.536  0.0227  0.413
    ##  9 -0.518 -0.0639  0.381
    ## 10 -0.487  0.152   0.690
    ## # … with 240 more rows
    ## 
    ## [[18]]
    ## # A tibble: 250 x 3
    ##         x  error      y
    ##     <dbl>  <dbl>  <dbl>
    ##  1 -1.29   1.40  -0.454
    ##  2 -1.29   1.40  -0.454
    ##  3 -1.21  -0.781 -2.43 
    ##  4 -1.00   0.832 -0.169
    ##  5 -0.989 -1.97  -2.93 
    ##  6 -0.914 -0.908 -1.65 
    ##  7 -0.805  0.292 -0.123
    ##  8 -0.733  0.447  0.248
    ##  9 -0.665 -0.544 -0.539
    ## 10 -0.665 -0.544 -0.539
    ## # … with 240 more rows
    ## 
    ## [[19]]
    ## # A tibble: 250 x 3
    ##         x  error      y
    ##     <dbl>  <dbl>  <dbl>
    ##  1 -1.89   1.62  -2.04 
    ##  2 -1.29   1.40  -0.454
    ##  3 -1.29   1.40  -0.454
    ##  4 -1.29   1.40  -0.454
    ##  5 -1.29   1.40  -0.454
    ##  6 -0.989 -1.97  -2.93 
    ##  7 -0.914 -0.908 -1.65 
    ##  8 -0.914 -0.908 -1.65 
    ##  9 -0.914 -0.908 -1.65 
    ## 10 -0.805  0.292 -0.123
    ## # … with 240 more rows
    ## 
    ## [[20]]
    ## # A tibble: 250 x 3
    ##         x  error      y
    ##     <dbl>  <dbl>  <dbl>
    ##  1 -1.89   1.62  -2.04 
    ##  2 -1.89   1.62  -2.04 
    ##  3 -1.89   1.62  -2.04 
    ##  4 -1.29   1.40  -0.454
    ##  5 -1.29   1.40  -0.454
    ##  6 -1.21  -0.781 -2.43 
    ##  7 -1.00   0.832 -0.169
    ##  8 -1.00   0.832 -0.169
    ##  9 -0.989 -1.97  -2.93 
    ## 10 -0.989 -1.97  -2.93 
    ## # … with 240 more rows
    ## 
    ## [[21]]
    ## # A tibble: 250 x 3
    ##         x  error      y
    ##     <dbl>  <dbl>  <dbl>
    ##  1 -1.89   1.62  -2.04 
    ##  2 -1.89   1.62  -2.04 
    ##  3 -1.89   1.62  -2.04 
    ##  4 -1.00   0.832 -0.169
    ##  5 -1.00   0.832 -0.169
    ##  6 -0.989 -1.97  -2.93 
    ##  7 -0.805  0.292 -0.123
    ##  8 -0.733  0.447  0.248
    ##  9 -0.665 -0.544 -0.539
    ## 10 -0.641 -0.416 -0.338
    ## # … with 240 more rows
    ## 
    ## [[22]]
    ## # A tibble: 250 x 3
    ##         x  error      y
    ##     <dbl>  <dbl>  <dbl>
    ##  1 -1.89   1.62  -2.04 
    ##  2 -1.29   1.40  -0.454
    ##  3 -0.989 -1.97  -2.93 
    ##  4 -0.914 -0.908 -1.65 
    ##  5 -0.805  0.292 -0.123
    ##  6 -0.805  0.292 -0.123
    ##  7 -0.805  0.292 -0.123
    ##  8 -0.733  0.447  0.248
    ##  9 -0.733  0.447  0.248
    ## 10 -0.641 -0.416 -0.338
    ## # … with 240 more rows
    ## 
    ## [[23]]
    ## # A tibble: 250 x 3
    ##         x  error      y
    ##     <dbl>  <dbl>  <dbl>
    ##  1 -1.89   1.62  -2.04 
    ##  2 -1.29   1.40  -0.454
    ##  3 -1.21  -0.781 -2.43 
    ##  4 -1.00   0.832 -0.169
    ##  5 -1.00   0.832 -0.169
    ##  6 -0.914 -0.908 -1.65 
    ##  7 -0.805  0.292 -0.123
    ##  8 -0.733  0.447  0.248
    ##  9 -0.733  0.447  0.248
    ## 10 -0.665 -0.544 -0.539
    ## # … with 240 more rows
    ## 
    ## [[24]]
    ## # A tibble: 250 x 3
    ##         x   error      y
    ##     <dbl>   <dbl>  <dbl>
    ##  1 -1.29   1.40   -0.454
    ##  2 -1.21  -0.781  -2.43 
    ##  3 -1.21  -0.781  -2.43 
    ##  4 -1.00   0.832  -0.169
    ##  5 -1.00   0.832  -0.169
    ##  6 -0.914 -0.908  -1.65 
    ##  7 -0.665 -0.544  -0.539
    ##  8 -0.641 -0.416  -0.338
    ##  9 -0.641 -0.416  -0.338
    ## 10 -0.536  0.0227  0.413
    ## # … with 240 more rows
    ## 
    ## [[25]]
    ## # A tibble: 250 x 3
    ##         x  error      y
    ##     <dbl>  <dbl>  <dbl>
    ##  1 -1.89   1.62  -2.04 
    ##  2 -1.89   1.62  -2.04 
    ##  3 -1.29   1.40  -0.454
    ##  4 -1.21  -0.781 -2.43 
    ##  5 -0.989 -1.97  -2.93 
    ##  6 -0.989 -1.97  -2.93 
    ##  7 -0.989 -1.97  -2.93 
    ##  8 -0.914 -0.908 -1.65 
    ##  9 -0.805  0.292 -0.123
    ## 10 -0.805  0.292 -0.123
    ## # … with 240 more rows
    ## 
    ## [[26]]
    ## # A tibble: 250 x 3
    ##         x  error      y
    ##     <dbl>  <dbl>  <dbl>
    ##  1 -1.29   1.40  -0.454
    ##  2 -1.21  -0.781 -2.43 
    ##  3 -1.21  -0.781 -2.43 
    ##  4 -1.00   0.832 -0.169
    ##  5 -0.989 -1.97  -2.93 
    ##  6 -0.733  0.447  0.248
    ##  7 -0.665 -0.544 -0.539
    ##  8 -0.641 -0.416 -0.338
    ##  9 -0.641 -0.416 -0.338
    ## 10 -0.524 -0.536 -0.106
    ## # … with 240 more rows
    ## 
    ## [[27]]
    ## # A tibble: 250 x 3
    ##         x  error      y
    ##     <dbl>  <dbl>  <dbl>
    ##  1 -1.89   1.62  -2.04 
    ##  2 -1.89   1.62  -2.04 
    ##  3 -1.29   1.40  -0.454
    ##  4 -1.29   1.40  -0.454
    ##  5 -1.21  -0.781 -2.43 
    ##  6 -1.21  -0.781 -2.43 
    ##  7 -0.989 -1.97  -2.93 
    ##  8 -0.989 -1.97  -2.93 
    ##  9 -0.989 -1.97  -2.93 
    ## 10 -0.914 -0.908 -1.65 
    ## # … with 240 more rows
    ## 
    ## [[28]]
    ## # A tibble: 250 x 3
    ##         x   error      y
    ##     <dbl>   <dbl>  <dbl>
    ##  1 -1.89   1.62   -2.04 
    ##  2 -1.29   1.40   -0.454
    ##  3 -0.989 -1.97   -2.93 
    ##  4 -0.914 -0.908  -1.65 
    ##  5 -0.914 -0.908  -1.65 
    ##  6 -0.733  0.447   0.248
    ##  7 -0.733  0.447   0.248
    ##  8 -0.665 -0.544  -0.539
    ##  9 -0.665 -0.544  -0.539
    ## 10 -0.536  0.0227  0.413
    ## # … with 240 more rows
    ## 
    ## [[29]]
    ## # A tibble: 250 x 3
    ##         x  error      y
    ##     <dbl>  <dbl>  <dbl>
    ##  1 -1.29   1.40  -0.454
    ##  2 -1.00   0.832 -0.169
    ##  3 -0.989 -1.97  -2.93 
    ##  4 -0.989 -1.97  -2.93 
    ##  5 -0.914 -0.908 -1.65 
    ##  6 -0.914 -0.908 -1.65 
    ##  7 -0.805  0.292 -0.123
    ##  8 -0.805  0.292 -0.123
    ##  9 -0.733  0.447  0.248
    ## 10 -0.733  0.447  0.248
    ## # … with 240 more rows
    ## 
    ## [[30]]
    ## # A tibble: 250 x 3
    ##         x  error       y
    ##     <dbl>  <dbl>   <dbl>
    ##  1 -1.29   1.40  -0.454 
    ##  2 -1.00   0.832 -0.169 
    ##  3 -0.914 -0.908 -1.65  
    ##  4 -0.665 -0.544 -0.539 
    ##  5 -0.606 -0.106  0.0774
    ##  6 -0.606 -0.106  0.0774
    ##  7 -0.524 -0.536 -0.106 
    ##  8 -0.524 -0.536 -0.106 
    ##  9 -0.524 -0.536 -0.106 
    ## 10 -0.524 -0.536 -0.106 
    ## # … with 240 more rows
    ## 
    ## [[31]]
    ## # A tibble: 250 x 3
    ##         x   error       y
    ##     <dbl>   <dbl>   <dbl>
    ##  1 -1.89   1.62   -2.04  
    ##  2 -1.89   1.62   -2.04  
    ##  3 -1.29   1.40   -0.454 
    ##  4 -0.989 -1.97   -2.93  
    ##  5 -0.606 -0.106   0.0774
    ##  6 -0.606 -0.106   0.0774
    ##  7 -0.536  0.0227  0.413 
    ##  8 -0.518 -0.0639  0.381 
    ##  9 -0.518 -0.0639  0.381 
    ## 10 -0.487  0.152   0.690 
    ## # … with 240 more rows
    ## 
    ## [[32]]
    ## # A tibble: 250 x 3
    ##         x   error       y
    ##     <dbl>   <dbl>   <dbl>
    ##  1 -1.89   1.62   -2.04  
    ##  2 -1.21  -0.781  -2.43  
    ##  3 -0.989 -1.97   -2.93  
    ##  4 -0.733  0.447   0.248 
    ##  5 -0.665 -0.544  -0.539 
    ##  6 -0.641 -0.416  -0.338 
    ##  7 -0.606 -0.106   0.0774
    ##  8 -0.536  0.0227  0.413 
    ##  9 -0.524 -0.536  -0.106 
    ## 10 -0.518 -0.0639  0.381 
    ## # … with 240 more rows
    ## 
    ## [[33]]
    ## # A tibble: 250 x 3
    ##         x    error       y
    ##     <dbl>    <dbl>   <dbl>
    ##  1 -1.29   1.40    -0.454 
    ##  2 -1.29   1.40    -0.454 
    ##  3 -0.989 -1.97    -2.93  
    ##  4 -0.914 -0.908   -1.65  
    ##  5 -0.805  0.292   -0.123 
    ##  6 -0.733  0.447    0.248 
    ##  7 -0.606 -0.106    0.0774
    ##  8 -0.606 -0.106    0.0774
    ##  9 -0.518 -0.0639   0.381 
    ## 10 -0.467  0.00876  0.607 
    ## # … with 240 more rows
    ## 
    ## [[34]]
    ## # A tibble: 250 x 3
    ##         x  error      y
    ##     <dbl>  <dbl>  <dbl>
    ##  1 -1.89   1.62  -2.04 
    ##  2 -1.29   1.40  -0.454
    ##  3 -1.29   1.40  -0.454
    ##  4 -1.00   0.832 -0.169
    ##  5 -1.00   0.832 -0.169
    ##  6 -0.914 -0.908 -1.65 
    ##  7 -0.805  0.292 -0.123
    ##  8 -0.733  0.447  0.248
    ##  9 -0.733  0.447  0.248
    ## 10 -0.665 -0.544 -0.539
    ## # … with 240 more rows
    ## 
    ## [[35]]
    ## # A tibble: 250 x 3
    ##         x  error      y
    ##     <dbl>  <dbl>  <dbl>
    ##  1 -1.89   1.62  -2.04 
    ##  2 -1.21  -0.781 -2.43 
    ##  3 -0.989 -1.97  -2.93 
    ##  4 -0.989 -1.97  -2.93 
    ##  5 -0.989 -1.97  -2.93 
    ##  6 -0.914 -0.908 -1.65 
    ##  7 -0.805  0.292 -0.123
    ##  8 -0.733  0.447  0.248
    ##  9 -0.665 -0.544 -0.539
    ## 10 -0.487  0.152  0.690
    ## # … with 240 more rows
    ## 
    ## [[36]]
    ## # A tibble: 250 x 3
    ##         x  error      y
    ##     <dbl>  <dbl>  <dbl>
    ##  1 -1.89   1.62  -2.04 
    ##  2 -1.89   1.62  -2.04 
    ##  3 -1.21  -0.781 -2.43 
    ##  4 -1.21  -0.781 -2.43 
    ##  5 -1.00   0.832 -0.169
    ##  6 -1.00   0.832 -0.169
    ##  7 -1.00   0.832 -0.169
    ##  8 -0.989 -1.97  -2.93 
    ##  9 -0.989 -1.97  -2.93 
    ## 10 -0.989 -1.97  -2.93 
    ## # … with 240 more rows
    ## 
    ## [[37]]
    ## # A tibble: 250 x 3
    ##         x   error       y
    ##     <dbl>   <dbl>   <dbl>
    ##  1 -1.29   1.40   -0.454 
    ##  2 -1.00   0.832  -0.169 
    ##  3 -0.989 -1.97   -2.93  
    ##  4 -0.989 -1.97   -2.93  
    ##  5 -0.989 -1.97   -2.93  
    ##  6 -0.914 -0.908  -1.65  
    ##  7 -0.733  0.447   0.248 
    ##  8 -0.733  0.447   0.248 
    ##  9 -0.606 -0.106   0.0774
    ## 10 -0.536  0.0227  0.413 
    ## # … with 240 more rows
    ## 
    ## [[38]]
    ## # A tibble: 250 x 3
    ##         x  error      y
    ##     <dbl>  <dbl>  <dbl>
    ##  1 -1.29   1.40  -0.454
    ##  2 -1.21  -0.781 -2.43 
    ##  3 -1.00   0.832 -0.169
    ##  4 -0.914 -0.908 -1.65 
    ##  5 -0.733  0.447  0.248
    ##  6 -0.733  0.447  0.248
    ##  7 -0.665 -0.544 -0.539
    ##  8 -0.665 -0.544 -0.539
    ##  9 -0.641 -0.416 -0.338
    ## 10 -0.641 -0.416 -0.338
    ## # … with 240 more rows
    ## 
    ## [[39]]
    ## # A tibble: 250 x 3
    ##         x  error      y
    ##     <dbl>  <dbl>  <dbl>
    ##  1 -1.89   1.62  -2.04 
    ##  2 -1.89   1.62  -2.04 
    ##  3 -1.21  -0.781 -2.43 
    ##  4 -1.21  -0.781 -2.43 
    ##  5 -0.989 -1.97  -2.93 
    ##  6 -0.989 -1.97  -2.93 
    ##  7 -0.989 -1.97  -2.93 
    ##  8 -0.914 -0.908 -1.65 
    ##  9 -0.665 -0.544 -0.539
    ## 10 -0.641 -0.416 -0.338
    ## # … with 240 more rows
    ## 
    ## [[40]]
    ## # A tibble: 250 x 3
    ##         x  error       y
    ##     <dbl>  <dbl>   <dbl>
    ##  1 -1.29   1.40  -0.454 
    ##  2 -1.00   0.832 -0.169 
    ##  3 -1.00   0.832 -0.169 
    ##  4 -0.914 -0.908 -1.65  
    ##  5 -0.805  0.292 -0.123 
    ##  6 -0.665 -0.544 -0.539 
    ##  7 -0.641 -0.416 -0.338 
    ##  8 -0.606 -0.106  0.0774
    ##  9 -0.524 -0.536 -0.106 
    ## 10 -0.524 -0.536 -0.106 
    ## # … with 240 more rows
    ## 
    ## [[41]]
    ## # A tibble: 250 x 3
    ##         x  error      y
    ##     <dbl>  <dbl>  <dbl>
    ##  1 -1.29   1.40  -0.454
    ##  2 -1.00   0.832 -0.169
    ##  3 -0.989 -1.97  -2.93 
    ##  4 -0.989 -1.97  -2.93 
    ##  5 -0.989 -1.97  -2.93 
    ##  6 -0.989 -1.97  -2.93 
    ##  7 -0.914 -0.908 -1.65 
    ##  8 -0.665 -0.544 -0.539
    ##  9 -0.641 -0.416 -0.338
    ## 10 -0.641 -0.416 -0.338
    ## # … with 240 more rows
    ## 
    ## [[42]]
    ## # A tibble: 250 x 3
    ##         x  error      y
    ##     <dbl>  <dbl>  <dbl>
    ##  1 -1.29   1.40  -0.454
    ##  2 -1.21  -0.781 -2.43 
    ##  3 -1.21  -0.781 -2.43 
    ##  4 -1.00   0.832 -0.169
    ##  5 -1.00   0.832 -0.169
    ##  6 -0.989 -1.97  -2.93 
    ##  7 -0.805  0.292 -0.123
    ##  8 -0.733  0.447  0.248
    ##  9 -0.665 -0.544 -0.539
    ## 10 -0.641 -0.416 -0.338
    ## # … with 240 more rows
    ## 
    ## [[43]]
…
